\relax 
\@writefile{toc}{\contentsline {section}{\numberline {1} Instruction set}{2}}
\@writefile{toc}{\contentsline {subsection}{\numberline {1.1}Instructions}{3}}
\@writefile{toc}{\contentsline {subsection}{\numberline {1.2}Basic ISO Classes}{3}}
\@writefile{toc}{\contentsline {subsection}{\numberline {1.3} General Puprose Registers Dominate}{3}}
\@writefile{toc}{\contentsline {subsection}{\numberline {1.4}RISC - Reduced Instruction Set Computer}{4}}
\@writefile{toc}{\contentsline {subsection}{\numberline {1.5}The MIPS Instruction Set}{4}}
\@writefile{toc}{\contentsline {subsubsection}{\numberline {1.5.1}MIPS Instruction Set Architecture}{4}}
